{
	"info": {
		"_postman_id": "d603bdff-b068-4ada-945d-b47604416556",
		"name": "Local",
		"schema": "https://schema.getpostman.com/json/collection/v2.1.0/collection.json"
	},
	"item": [
		{
			"name": "Employee",
			"request": {
				"auth": {
					"type": "basic",
					"basic": [
						{
							"key": "username",
							"value": "userEmployee",
							"type": "string"
						},
						{
							"key": "password",
							"value": "password",
							"type": "string"
						}
					]
				},
				"method": "POST",
				"header": [],
				"body": {
					"mode": "raw",
					"raw": "{\r\n    \"billItems\":[\r\n        {\r\n            \"itemType\":\"GROCERIES\",\r\n            \"amount\":500\r\n        },\r\n        {\r\n            \"itemType\":\"ELECTRONIC\",\r\n            \"amount\":500\r\n        }\r\n    ]\r\n}",
					"options": {
						"raw": {
							"language": "json"
						}
					}
				},
				"url": {
					"raw": "http://localhost:8080/api/getPayableAmount",
					"protocol": "http",
					"host": [
						"localhost"
					],
					"port": "8080",
					"path": [
						"api",
						"getPayableAmount"
					]
				}
			},
			"response": []
		},
		{
			"name": "Affiliate",
			"request": {
				"auth": {
					"type": "basic",
					"basic": [
						{
							"key": "username",
							"value": "userAffiliate",
							"type": "string"
						},
						{
							"key": "password",
							"value": "password",
							"type": "string"
						}
					]
				},
				"method": "POST",
				"header": [],
				"body": {
					"mode": "raw",
					"raw": "{\r\n    \"userName\": \"userStandard\",\r\n    \"billItems\":[\r\n        {\r\n            \"itemType\":\"GROCERIES\",\r\n            \"amount\":500\r\n        },\r\n        {\r\n            \"itemType\":\"ELECTRONIC\",\r\n            \"amount\":500\r\n        }\r\n    ]\r\n}",
					"options": {
						"raw": {
							"language": "json"
						}
					}
				},
				"url": {
					"raw": "http://localhost:8080/api/getPayableAmount",
					"protocol": "http",
					"host": [
						"localhost"
					],
					"port": "8080",
					"path": [
						"api",
						"getPayableAmount"
					]
				}
			},
			"response": []
		},
		{
			"name": "Standard",
			"request": {
				"auth": {
					"type": "basic",
					"basic": [
						{
							"key": "username",
							"value": "userOld",
							"type": "string"
						},
						{
							"key": "password",
							"value": "password",
							"type": "string"
						}
					]
				},
				"method": "POST",
				"header": [],
				"body": {
					"mode": "raw",
					"raw": "{\r\n    \"userName\": \"userStandard\",\r\n    \"billItems\":[\r\n        {\r\n            \"itemType\":\"GROCERIES\",\r\n            \"amount\":500\r\n        },\r\n        {\r\n            \"itemType\":\"ELECTRONIC\",\r\n            \"amount\":500\r\n        }\r\n    ]\r\n}",
					"options": {
						"raw": {
							"language": "json"
						}
					}
				},
				"url": {
					"raw": "http://localhost:8080/api/getPayableAmount",
					"protocol": "http",
					"host": [
						"localhost"
					],
					"port": "8080",
					"path": [
						"api",
						"getPayableAmount"
					]
				}
			},
			"response": []
		},
		{
			"name": "UserOld",
			"request": {
				"auth": {
					"type": "basic",
					"basic": [
						{
							"key": "username",
							"value": "userStandard",
							"type": "string"
						},
						{
							"key": "password",
							"value": "password",
							"type": "string"
						}
					]
				},
				"method": "POST",
				"header": [],
				"body": {
					"mode": "raw",
					"raw": "{\r\n    \"userName\": \"userStandard\",\r\n    \"billItems\":[\r\n        {\r\n            \"itemType\":\"GROCERIES\",\r\n            \"amount\":500\r\n        },\r\n        {\r\n            \"itemType\":\"ELECTRONIC\",\r\n            \"amount\":500\r\n        }\r\n    ]\r\n}",
					"options": {
						"raw": {
							"language": "json"
						}
					}
				},
				"url": {
					"raw": "http://localhost:8080/api/getPayableAmount",
					"protocol": "http",
					"host": [
						"localhost"
					],
					"port": "8080",
					"path": [
						"api",
						"getPayableAmount"
					]
				}
			},
			"response": []
		}
	]
}